Political Contribution in Profitable Business
…
第九屆前三名：中科國際物流股份有限公司、東徽企業股份有限公司、建新國際股份有限公司。 第八屆前三名：吉美建設事業股份有限公司、國美建設股份有限公司、亞東預拌混凝土股份有限公司。 第七屆前三名：大慶票券金融股份有限公司、大眾綜合證券股份有限公司、台灣櫻花股份有限公司。

單比捐獻金額最高

donall %>%
  select(屆數, 捐贈者.支出對象, 收入金額) %>%
  group_by(屆數) %>%
  top_n(3, 收入金額)

## # A tibble: 547 x 3
## # Groups:   屆數 [3]
##    屆數  捐贈者.支出對象          收入金額
##    <chr> <chr>                       <int>
##  1 7     百揚投資股份有限公司      1000000
##  2 7     新勤股份有限公司          1000000
##  3 7     裕景實業股份有限公司      1000000
##  4 7     亞洲工程企業(股)          1000000
##  5 7     百鼎投資股份有限公司      1000000
##  6 7     鼎泰水泥股份有限公司      1000000
##  7 7     鼎固營造股份有限公司      1000000
##  8 7     大眾綜合證券股份有限公司  1000000
##  9 7     亞洲水泥股份有限公司      1000000
## 10 7     正佳營造有限公司          1000000
## # ... with 537 more rows
…
